…
***Distinct stations servng A train***

``` r
tidy_nyc_transit_df %>%
  filter(route_name == "A") %>% 
  distinct(station_name)
```

    ## # A tibble: 56 x 1
    ##    station_name                 
    ##    <chr>                        
    ##  1 Times Square                 
    ##  2 125th St                     
    ##  3 145th St                     
    ##  4 14th St                      
    ##  5 168th St - Washington Heights
    ##  6 175th St                     
    ##  7 181st St                     
    ##  8 190th St                     
    ##  9 34th St                      
    ## 10 42nd St                      
    ## # … with 46 more rows
…
